[
  {"uid":"00takeshin", "password":"sts5040", "gid":"ops", "uid_number": 90001, "gid_number": 90000, "home_directory": "/home/00takeshin"},
  {"uid":"00sakamaki", "password":"m3Dje30d", "gid":"ops", "uid_number": 90002, "gid_number": 90000, "home_directory": "/home/00sakamaki"}
]
